{
  "variants": {
    "type=bottom": {
      "model": "simpleroads:block/road_slab"
    },
    "type=double": {
      "model": "simpleroads:block/road"
    },
    "type=top": {
      "model": "simpleroads:block/road_slab_top"
    }
  }
}