{
    "parent": "minecraft:block/slab_top",
    "textures": {
        "bottom": "simpleroads:block/road",
        "top": "simpleroads:block/road",
        "side": "simpleroads:block/road"
    }
}